<svg xmlns="http://www.w3.org/2000/svg" width="33" height="33" viewBox="0 0 33 33">
  <g id="Group_372" data-name="Group 372" transform="translate(-5609 -106)">
    <rect id="Rectangle_1916" data-name="Rectangle 1916" width="33" height="33" rx="5" transform="translate(5609 106)" fill="#035B5B"/>
    <path id="Icon_awesome-user-alt" data-name="Icon awesome-user-alt" d="M7.385,8.308A4.154,4.154,0,1,0,3.231,4.154,4.155,4.155,0,0,0,7.385,8.308Zm3.693.923H9.488a5.022,5.022,0,0,1-4.206,0H3.693A3.692,3.692,0,0,0,0,12.924v.462A1.385,1.385,0,0,0,1.385,14.77h12a1.385,1.385,0,0,0,1.385-1.385v-.462A3.692,3.692,0,0,0,11.078,9.231Z" transform="translate(5618.115 115.115)" fill="#fff"/>
  </g>
</svg>
